<?xml version="1.0" encoding="UTF-8"?>
<!DOCTYPE svg PUBLIC "-//W3C//DTD SVG 1.1//EN" "http://www.w3.org/Graphics/SVG/1.1/DTD/svg11.dtd">
<!-- Creator: CorelDRAW X7 -->
<svg xmlns="http://www.w3.org/2000/svg" xml:space="preserve" width="67.7333mm" height="67.7333mm" version="1.1" style="shape-rendering:geometricPrecision; text-rendering:geometricPrecision; image-rendering:optimizeQuality; fill-rule:evenodd; clip-rule:evenodd"
viewBox="0 0 6876 6876"
 xmlns:xlink="http://www.w3.org/1999/xlink">
 <defs>
  <style type="text/css">
   <![CDATA[
    .fil0 {fill:#F48024}
    .fil1 {fill:white}
   ]]>
  </style>
 </defs>
 <g id="Capa_x0020_1">
  <metadata id="CorelCorpID_0Corel-Layer"/>
  <circle class="fil0" cx="3438" cy="3438" r="3438"/>
  <g id="_438677464">
   <path class="fil1" d="M5236 2434c17,-30 55,-214 67,-262l129 -523c22,-90 48,-178 64,-260 -88,17 -180,51 -264,76 -89,26 -172,50 -260,75 -48,13 -457,125 -506,145 -9,4 -6,4 -11,7 41,28 78,73 115,108 48,45 96,87 141,136 -10,25 -268,284 -307,324 -80,79 -150,164 -232,242l-231 240c-21,27 -56,58 -78,81 -15,15 -26,26 -40,41l-189 197c-30,30 -54,56 -79,81l-38 42c-12,13 -24,25 -38,35 -40,-30 -73,-76 -110,-112l-321 -331c-20,-21 -35,-37 -55,-57l-214 -221c-59,-65 -148,-94 -232,-46 -63,35 -256,261 -324,329 -22,21 -35,38 -54,57 -18,19 -37,36 -53,53 -35,38 -67,73 -105,113l-535 559c-38,42 -65,70 -106,111 -187,190 81,425 244,272l94 -98c9,-11 16,-18 26,-28l518 -542c70,-83 152,-158 225,-238 6,-6 7,-7 13,-13 40,-44 100,-115 145,-152 22,14 262,265 287,291 16,16 20,23 36,39l246 253c66,67 146,179 235,201 6,1 12,2 18,3 14,3 1,1 13,2 12,1 23,-1 32,-2 22,-3 37,-8 54,-15 54,-24 231,-222 290,-283 1,-1 2,-2 3,-3l7 -8c3,-3 6,-7 8,-8l125 -131c90,-101 191,-190 281,-291 15,-17 23,-24 36,-38 8,-9 10,-11 19,-19l159 -165c13,-13 24,-24 36,-38 7,-8 11,-12 18,-19l282 -292c6,-6 8,-9 15,-16 24,-25 46,-48 71,-73l70 -72 197 185c19,21 39,43 63,58z"/>
   <path class="fil1" d="M4684 2843l0 2384c159,0 400,-5 549,1 -15,-42 4,-2431 -5,-2464 -8,-15 -1,-5 -13,-17 -62,-64 -172,-160 -231,-220l-76 78c-32,32 -216,218 -224,238z"/>
   <path class="fil1" d="M4020 3533l0 1694 547 0 -2 -2261c-22,11 -122,122 -139,139 -44,46 -99,102 -135,141 -45,47 -99,101 -136,140 -24,27 -128,126 -135,147z"/>
   <path class="fil1" d="M2696 5227l544 -1 0 -1396c-7,-7 -24,-23 -35,-33l-138 -138c-13,-13 -21,-22 -34,-36l-306 -314c-14,-14 -15,-24 -32,-28l1 1946z"/>
   <path class="fil1" d="M2579 3284c-22,12 -61,57 -82,79 -27,27 -47,54 -75,79l-380 400c-17,18 -11,36 -11,68 0,120 -6,1252 2,1317l544 -1c-8,-156 -1,-330 -1,-488 0,-115 -6,-1407 3,-1454z"/>
   <path class="fil1" d="M3360 5227l542 0 0 -1572c-12,6 -4,0 -12,7 -2,1 -5,4 -6,5 -111,107 -154,198 -342,230 -79,13 -114,-3 -184,-11l2 1341z"/>
   <path class="fil1" d="M1367 5227l549 2c-11,-57 -2,-1148 -3,-1250 -49,47 -109,118 -153,155 -116,97 -231,113 -392,81l-1 1012z"/>
  </g>
 </g>
</svg>
