<?xml version="1.0" encoding="UTF-8"?>
<!DOCTYPE svg PUBLIC "-//W3C//DTD SVG 1.1//EN" "http://www.w3.org/Graphics/SVG/1.1/DTD/svg11.dtd">
<!-- Creator: CorelDRAW X7 -->
<svg xmlns="http://www.w3.org/2000/svg" xml:space="preserve" width="65.5418mm" height="67.7333mm" version="1.1" style="shape-rendering:geometricPrecision; text-rendering:geometricPrecision; image-rendering:optimizeQuality; fill-rule:evenodd; clip-rule:evenodd"
viewBox="0 0 4947 5112"
 xmlns:xlink="http://www.w3.org/1999/xlink">
 <defs>
  <style type="text/css">
   <![CDATA[
    .fil0 {fill:white}
   ]]>
  </style>
 </defs>
 <g id="Capa_x0020_1">
  <metadata id="CorelCorpID_0Corel-Layer"/>
  <path class="fil0" d="M1753 4640c-35,-107 -24,-317 80,-348 34,-10 304,-51 341,84 31,113 18,307 -82,338 -20,6 -300,49 -339,-74zm1162 -4245c0,448 72,373 -383,373 -531,-1 -479,-2 -53,-426 431,-428 436,-501 436,53zm1308 1919l218 0c37,0 67,30 67,67l0 200c0,36 -30,67 -67,67l-218 0c-36,0 -66,-30 -66,-67l0 -200c0,-37 30,-67 66,-67zm-975 67l606 0c30,0 54,24 54,54l0 122c0,30 -24,54 -54,54l-606 0c-30,0 -55,-24 -55,-54l0 -122c0,-30 25,-54 55,-54zm0 -498l606 0c30,0 54,25 54,55l0 121c0,30 -24,55 -54,55l-606 0c-30,0 -55,-25 -55,-55l0 -121c0,-30 25,-55 55,-55zm975 -66l218 0c37,0 67,30 67,66l0 200c0,37 -30,67 -67,67l-218 0c-36,0 -66,-30 -66,-67l0 -200c0,-36 30,-66 66,-66zm-975 -430l606 0c30,0 54,25 54,55l0 121c0,30 -24,54 -54,54l-606 0c-30,0 -55,-24 -55,-54l0 -121c0,-30 25,-55 55,-55zm975 -66l218 0c37,0 67,30 67,66l0 200c0,37 -30,67 -67,67l-218 0c-36,0 -66,-30 -66,-67l0 -200c0,-36 30,-66 66,-66zm-975 -394l606 0c30,0 54,25 54,55l0 121c0,30 -24,54 -54,54l-606 0c-30,0 -55,-24 -55,-54l0 -121c0,-30 25,-55 55,-55zm975 -67l218 0c37,0 67,30 67,67l0 200c0,37 -30,67 -67,67l-218 0c-36,0 -66,-30 -66,-67l0 -200c0,-37 30,-67 66,-67zm724 2505l-2111 -3 -3 -1291c-1,-260 61,-620 -343,-635 -88,-3 -199,3 -339,1l2 -528c1028,-24 906,172 901,-901 434,-1 869,0 1304,0 536,0 534,-2 540,326l49 3031zm-4549 1275c0,0 -59,-301 79,-347 27,-8 300,-54 343,80 12,38 10,164 7,209 -13,233 -393,154 -429,58zm675 -11c-26,-114 -21,-310 86,-339 35,-9 169,-7 210,-5 218,13 164,399 42,431 -100,25 -312,23 -338,-87zm-4 -815c0,-135 15,-205 158,-206 206,0 277,-19 277,206 0,241 -37,231 -266,231 -170,0 -169,-79 -169,-231zm756 -195c55,-22 152,-14 217,-10 236,15 151,391 57,427 -34,14 -168,11 -212,9 -67,-2 -110,-27 -132,-76 -20,-48 -14,-156 -12,-215 3,-71 27,-112 82,-135zm-1326 -7c57,-14 297,-40 325,98 6,27 6,192 2,221 -25,184 -407,149 -432,10 -5,-31 -5,-188 -1,-220 9,-65 42,-94 106,-109zm569 -400c0,-153 -28,-280 159,-280 159,-1 277,-24 277,162 0,283 -21,274 -277,274 -108,0 -159,-47 -159,-156zm-595 -272c26,-11 174,-9 211,-8 60,2 111,21 132,75 5,13 62,301 -68,351 -10,4 -299,62 -348,-73 -6,-17 -58,-288 73,-345zm1271 154c0,-128 52,-162 167,-162 147,0 270,-22 270,162 0,235 5,274 -222,274 -226,0 -215,-60 -215,-274zm-1353 -827c0,-135 60,-157 186,-157l1134 -1c417,3 470,-48 470,253 0,260 23,311 -222,311l-1217 0c-211,2 -350,26 -351,-158l0 -248zm-379 2409c29,195 182,355 349,407 140,44 1249,25 1480,24 298,-1 415,9 586,-163 164,-165 140,-354 140,-622l0 -1500c-1,-199 21,-563 -7,-742 -33,-205 -181,-352 -349,-406 -145,-46 -1246,-25 -1480,-25 -223,1 -433,-15 -588,160 -149,168 -137,347 -138,623 -1,303 -15,2100 7,2244z"/>
 </g>
</svg>
